{
    "key": "group_5accf7c3a2e49",
    "title": "Posts",
    "fields": [
        {
            "key": "field_5accf7c919a1a",
            "label": "Lower section",
            "name": "lower_section",
            "type": "flexible_content",
            "instructions": "",
            "required": 0,
            "conditional_logic": 0,
            "wrapper": {
                "width": "",
                "class": "",
                "id": ""
            },
            "layouts": {
                "5accf7d644c2a": {
                    "key": "5accf7d644c2a",
                    "name": "call_to_action",
                    "label": "Call to Action",
                    "display": "block",
                    "sub_fields": [
                        {
                            "key": "field_5accf7ec19a1b",
                            "label": "Text",
                            "name": "text",
                            "type": "textarea",
                            "instructions": "",
                            "required": 0,
                            "conditional_logic": 0,
                            "wrapper": {
                                "width": "",
                                "class": "",
                                "id": ""
                            },
                            "default_value": "",
                            "placeholder": "",
                            "maxlength": "",
                            "rows": 2,
                            "new_lines": "br"
                        },
                        {
                            "key": "field_5accf7f219a1c",
                            "label": "Button Text",
                            "name": "button_text",
                            "type": "text",
                            "instructions": "",
                            "required": 0,
                            "conditional_logic": 0,
                            "wrapper": {
                                "width": "",
                                "class": "",
                                "id": ""
                            },
                            "default_value": "",
                            "placeholder": "",
                            "prepend": "",
                            "append": "",
                            "maxlength": ""
                        },
                        {
                            "key": "field_5accf7f919a1d",
                            "label": "Button URL",
                            "name": "button_url",
                            "type": "page_link",
                            "instructions": "",
                            "required": 0,
                            "conditional_logic": 0,
                            "wrapper": {
                                "width": "",
                                "class": "",
                                "id": ""
                            },
                            "post_type": [
                                "page",
                                "partners"
                            ],
                            "taxonomy": [],
                            "allow_null": 0,
                            "allow_archives": 1,
                            "multiple": 0
                        },
                        {
                            "key": "field_5accfa8ccfd28",
                            "label": "Highlight Button",
                            "name": "highlight_button",
                            "type": "true_false",
                            "instructions": "Make the button red to highlight",
                            "required": 0,
                            "conditional_logic": 0,
                            "wrapper": {
                                "width": "",
                                "class": "",
                                "id": ""
                            },
                            "message": "",
                            "default_value": 0,
                            "ui": 1,
                            "ui_on_text": "Highlight",
                            "ui_off_text": "Normal"
                        },
                        {
                            "key": "field_62acc497faf84",
                            "label": "Link Type",
                            "name": "link_type",
                            "type": "radio",
                            "instructions": "",
                            "required": 0,
                            "conditional_logic": 0,
                            "wrapper": {
                                "width": "",
                                "class": "",
                                "id": ""
                            },
                            "choices": {
                                "url": "URL",
                                "sitepage": "Site Page",
                                "allsites": "All Sites Pages"
                            },
                            "allow_null": 0,
                            "other_choice": 0,
                            "default_value": "url",
                            "layout": "vertical",
                            "return_format": "value",
                            "save_other_choice": 0
                        },
                        {
                            "key": "field_62acc4c0faf85",
                            "label": "Link URL",
                            "name": "link_url",
                            "type": "url",
                            "instructions": "",
                            "required": 0,
                            "conditional_logic": [
                                [
                                    {
                                        "field": "field_62acc497faf84",
                                        "operator": "==",
                                        "value": "url"
                                    }
                                ]
                            ],
                            "wrapper": {
                                "width": "",
                                "class": "",
                                "id": ""
                            },
                            "default_value": "",
                            "placeholder": ""
                        },
                        {
                            "key": "field_62acc4d0faf86",
                            "label": "Page Link",
                            "name": "site_page_link",
                            "type": "page_link",
                            "instructions": "",
                            "required": 0,
                            "conditional_logic": [
                                [
                                    {
                                        "field": "field_62acc497faf84",
                                        "operator": "==",
                                        "value": "sitepage"
                                    }
                                ]
                            ],
                            "wrapper": {
                                "width": "",
                                "class": "",
                                "id": ""
                            },
                            "post_type": [
                                "page",
                                "post",
                                "events",
                                "ministrylocations"
                            ],
                            "taxonomy": "",
                            "allow_null": 0,
                            "allow_archives": 1,
                            "multiple": 0
                        },
                        {
                            "key": "field_62acc4fdfaf87",
                            "label": "All Sites Page Link",
                            "name": "allsiteslinks_select",
                            "type": "select",
                            "instructions": "",
                            "required": 0,
                            "conditional_logic": [
                                [
                                    {
                                        "field": "field_62acc497faf84",
                                        "operator": "==",
                                        "value": "allsites"
                                    }
                                ]
                            ],
                            "wrapper": {
                                "width": "",
                                "class": "",
                                "id": ""
                            },
                            "choices": {
                                "http:\/\/abcs.local\/about\/": "abcs.local > PAGE > About",
                                "http:\/\/abcs.local\/arizona-tax-credit\/": "abcs.local > PAGE > Arizona Tax Credit",
                                "http:\/\/abcs.local\/blog\/": "abcs.local > PAGE > Blog",
                                "http:\/\/abcs.local\/calendar\/": "abcs.local > PAGE > Calendar",
                                "http:\/\/abcs.local\/careers\/": "abcs.local > PAGE > Careers",
                                "http:\/\/abcs.local\/connect-with-us\/": "abcs.local > PAGE > Connect With Us",
                                "http:\/\/abcs.local\/donate\/": "abcs.local > PAGE > Donate",
                                "http:\/\/abcs.local\/donation-confirmation-2\/": "abcs.local > PAGE > Donation Confirmation",
                                "http:\/\/abcs.local\/donation-confirmation\/": "abcs.local > PAGE > Donation Confirmation",
                                "http:\/\/abcs.local\/donation-failed-2\/": "abcs.local > PAGE > Donation Failed",
                                "http:\/\/abcs.local\/donation-failed\/": "abcs.local > PAGE > Donation Failed",
                                "http:\/\/abcs.local\/donation-history-2\/": "abcs.local > PAGE > Donation History",
                                "http:\/\/abcs.local\/donation-history\/": "abcs.local > PAGE > Donation History",
                                "http:\/\/abcs.local\/events\/": "abcs.local > PAGE > Events",
                                "http:\/\/abcs.local\/financial-integrity\/": "abcs.local > PAGE > Financial Integrity",
                                "http:\/\/abcs.local\/give-goods-services\/": "abcs.local > PAGE > Give Goods &amp; Services",
                                "http:\/\/abcs.local\/": "abcs.local > PAGE > Home",
                                "http:\/\/abcs.local\/sample-page-2\/": "abcs.local > PAGE > Home",
                                "http:\/\/abcs.local\/locations\/": "abcs.local > PAGE > Locations",
                                "http:\/\/abcs.local\/planned-giving\/": "abcs.local > PAGE > Planned Giving",
                                "http:\/\/abcs.local\/pray\/": "abcs.local > PAGE > Pray",
                                "http:\/\/abcs.local\/sample-page\/": "abcs.local > PAGE > Sample Page",
                                "http:\/\/abcs.local\/services\/": "abcs.local > PAGE > Services",
                                "http:\/\/abcs.local\/statement-of-faith\/": "abcs.local > PAGE > Statement of faith",
                                "http:\/\/abcs.local\/volunteer\/": "abcs.local > PAGE > Volunteer",
                                "http:\/\/abcs.local\/volunteer-application\/": "abcs.local > PAGE > Volunteer Application",
                                "http:\/\/abcs.local\/services\/after-abortion\/": "abcs.local > SERVICE > After Abortion",
                                "http:\/\/abcs.local\/services\/classes\/": "abcs.local > SERVICE > Classes",
                                "http:\/\/abcs.local\/services\/community-resources\/": "abcs.local > SERVICE > Community Resources",
                                "http:\/\/abcs.local\/services\/material-assistance\/": "abcs.local > SERVICE > Material Assistance",
                                "http:\/\/abcs.local\/services\/pregnancy-tests\/": "abcs.local > SERVICE > Pregnancy tests",
                                "http:\/\/abcs.local\/services\/ultrasounds\/": "abcs.local > SERVICE > Ultrasounds",
                                "http:\/\/abcs.local\/events\/alimenta-tu-fe\/": "abcs.local > EVENT > Alimenta Tu Fe",
                                "http:\/\/abcs.local\/events\/1213-2\/": "abcs.local > EVENT > Arizona for Life March and Rally",
                                "http:\/\/abcs.local\/events\/avoiding-debt-tempe\/": "abcs.local > EVENT > Avoiding Debt (Tempe)",
                                "http:\/\/abcs.local\/events\/bible-study-avondale\/": "abcs.local > EVENT > Bible Study (Avondale)",
                                "http:\/\/abcs.local\/events\/bible-study-metro-phoenix\/": "abcs.local > EVENT > Bible Study (Metro Phoenix)",
                                "http:\/\/abcs.local\/events\/bible-study-south-phoenix\/": "abcs.local > EVENT > Bible Study (South Phoenix)",
                                "http:\/\/abcs.local\/events\/bible-study\/": "abcs.local > EVENT > Bible Study (Tucson)",
                                "http:\/\/abcs.local\/events\/boundaries-with-kids\/": "abcs.local > EVENT > Boundaries with Kids",
                                "http:\/\/abcs.local\/events\/bright-course-the-importance-of-words\/": "abcs.local > EVENT > Bright Course &#8211; The Importance of Words",
                                "http:\/\/abcs.local\/events\/bright-course-add-adhd\/": "abcs.local > EVENT > Bright Course – ADD\/ADHD",
                                "http:\/\/abcs.local\/events\/bright-course-sexual-behavior-and-children\/": "abcs.local > EVENT > Bright Course – Sexual Behavior and Children",
                                "http:\/\/abcs.local\/events\/bright-course-strong-willed-children\/": "abcs.local > EVENT > Bright Course – Strong Willed Children",
                                "http:\/\/abcs.local\/events\/bullies-tempe\/": "abcs.local > EVENT > Bullies (Tempe)",
                                "http:\/\/abcs.local\/events\/childrens-class\/": "abcs.local > EVENT > Children&#8217;s Class",
                                "http:\/\/abcs.local\/events\/christmas-party\/": "abcs.local > EVENT > Christmas Party",
                                "http:\/\/abcs.local\/events\/creating-confidence\/": "abcs.local > EVENT > Creating Confidence",
                                "http:\/\/abcs.local\/events\/creating-confidence-in-your-child\/": "abcs.local > EVENT > Creating Confidence in Your Child",
                                "http:\/\/abcs.local\/events\/creating-courage\/": "abcs.local > EVENT > Creating Courage",
                                "http:\/\/abcs.local\/events\/creating-honesty\/": "abcs.local > EVENT > Creating Honesty",
                                "http:\/\/abcs.local\/events\/creating-honesty-in-your-child\/": "abcs.local > EVENT > Creating Honesty in Your Child",
                                "http:\/\/abcs.local\/events\/creating-kindness\/": "abcs.local > EVENT > Creating Kindness",
                                "http:\/\/abcs.local\/events\/creating-kindness-in-your-child\/": "abcs.local > EVENT > Creating Kindness in Your Child",
                                "http:\/\/abcs.local\/events\/creating-motivation\/": "abcs.local > EVENT > Creating Motivation",
                                "http:\/\/abcs.local\/events\/1216-2\/": "abcs.local > EVENT > Dental Health Screening",
                                "http:\/\/abcs.local\/events\/effective-discipline\/": "abcs.local > EVENT > Effective Discipline",
                                "http:\/\/abcs.local\/events\/eye-contact\/": "abcs.local > EVENT > Eye Contact",
                                "http:\/\/abcs.local\/events\/family-stability-inside-change-helping-children-process-change-parenting-class\/": "abcs.local > EVENT > Family Stability Inside Change: Helping Children Process Change (Parenting Class)",
                                "http:\/\/abcs.local\/events\/fighting-the-impulse-to-spend-tempe\/": "abcs.local > EVENT > Fighting the Impulse to Spend (Tempe)",
                                "http:\/\/abcs.local\/events\/food-safety-tempe\/": "abcs.local > EVENT > Food Safety (Tempe)",
                                "http:\/\/abcs.local\/events\/free-vision-screening-wickenburg\/": "abcs.local > EVENT > Free Vision Screening (Wickenburg)",
                                "http:\/\/abcs.local\/events\/fuel-your-faith\/": "abcs.local > EVENT > Fuel Your Faith",
                                "http:\/\/abcs.local\/events\/fun-fall-activity\/": "abcs.local > EVENT > Fun Fall Activity",
                                "http:\/\/abcs.local\/events\/test-event\/": "abcs.local > EVENT > Garage sale",
                                "http:\/\/abcs.local\/events\/grace-based-discipline-redeem\/": "abcs.local > EVENT > Grace Based Discipline &#8211; Redeem",
                                "http:\/\/abcs.local\/events\/grace-based-discipline-reflect\/": "abcs.local > EVENT > Grace Based Discipline &#8211; Reflect",
                                "http:\/\/abcs.local\/events\/grace-based-discipline-reform\/": "abcs.local > EVENT > Grace Based Discipline &#8211; Reform",
                                "http:\/\/abcs.local\/events\/grace-based-discipline-regulate\/": "abcs.local > EVENT > Grace Based Discipline &#8211; Regulate",
                                "http:\/\/abcs.local\/events\/grace-based-discipline-relate\/": "abcs.local > EVENT > Grace Based Discipline &#8211; Relate",
                                "http:\/\/abcs.local\/events\/grace-based-discipline-respond\/": "abcs.local > EVENT > Grace Based Discipline &#8211; Respond",
                                "http:\/\/abcs.local\/events\/have-a-new-kid-by-friday-oct\/": "abcs.local > EVENT > Have a New Kid by Friday (Oct.)",
                                "http:\/\/abcs.local\/events\/have-a-new-kid-by-friday\/": "abcs.local > EVENT > Have a New Kid by Friday!",
                                "http:\/\/abcs.local\/events\/healing-from-emotional-abuse\/": "abcs.local > EVENT > Healing from Emotional Abuse",
                                "http:\/\/abcs.local\/events\/healthy-boundaries-tempe\/": "abcs.local > EVENT > Healthy Boundaries (Tempe)",
                                "http:\/\/abcs.local\/events\/helicopter-or-lighthouse-parenting\/": "abcs.local > EVENT > Helicopter or Lighthouse Parenting",
                                "http:\/\/abcs.local\/events\/infant-hygiene\/": "abcs.local > EVENT > Infant Hygiene",
                                "http:\/\/abcs.local\/events\/infant-temperament\/": "abcs.local > EVENT > Infant Temperament",
                                "http:\/\/abcs.local\/events\/introduction-to-parenting-class-open-house-fun-games\/": "abcs.local > EVENT > Introduction to Parenting! Open House &amp; Fun Games!",
                                "http:\/\/abcs.local\/events\/lead-safety\/": "abcs.local > EVENT > Lead Safety",
                                "http:\/\/abcs.local\/events\/love-languages-part-2-tempe-parenting-class\/": "abcs.local > EVENT > Love Languages Part 2 &#8211; Tempe Parenting Class",
                                "http:\/\/abcs.local\/events\/lying-and-stealing-tempe\/": "abcs.local > EVENT > Lying and Stealing (Tempe)",
                                "http:\/\/abcs.local\/events\/mesa-life-skills-classes\/": "abcs.local > EVENT > Mesa &#8211; Life Skills Classes",
                                "http:\/\/abcs.local\/events\/mesa-life-skills-classes-2\/": "abcs.local > EVENT > Mesa &#8211; Parenting Classes",
                                "http:\/\/abcs.local\/events\/mexico-clases-para-padres\/": "abcs.local > EVENT > México &#8211; Clases para padres",
                                "http:\/\/abcs.local\/events\/money-management\/": "abcs.local > EVENT > Money Management",
                                "http:\/\/abcs.local\/events\/nutrition\/": "abcs.local > EVENT > Nutrition",
                                "http:\/\/abcs.local\/events\/organizing-your-home\/": "abcs.local > EVENT > Organizing Your Home",
                                "http:\/\/abcs.local\/events\/parenting-class-tempe-6\/": "abcs.local > EVENT > Parenting Class &#8211; Tempe",
                                "http:\/\/abcs.local\/events\/parenting-class-tempe-7\/": "abcs.local > EVENT > Parenting Class &#8211; Tempe",
                                "http:\/\/abcs.local\/events\/parenting-class-tempe-8\/": "abcs.local > EVENT > Parenting Class &#8211; Tempe",
                                "http:\/\/abcs.local\/events\/parenting-class-tempe-9\/": "abcs.local > EVENT > Parenting Class &#8211; Tempe",
                                "http:\/\/abcs.local\/events\/parenting-class-tempe-10\/": "abcs.local > EVENT > Parenting Class &#8211; Tempe",
                                "http:\/\/abcs.local\/events\/parenting-class-tempe-11\/": "abcs.local > EVENT > Parenting Class &#8211; Tempe",
                                "http:\/\/abcs.local\/events\/parenting-class-tempe-12\/": "abcs.local > EVENT > Parenting Class &#8211; Tempe",
                                "http:\/\/abcs.local\/events\/parenting-class-tempe-13\/": "abcs.local > EVENT > Parenting Class &#8211; Tempe",
                                "http:\/\/abcs.local\/events\/parenting-class-tempe-14\/": "abcs.local > EVENT > Parenting Class &#8211; Tempe",
                                "http:\/\/abcs.local\/events\/parenting-class-tempe-15\/": "abcs.local > EVENT > Parenting Class &#8211; Tempe",
                                "http:\/\/abcs.local\/events\/parenting-class-tempe-16\/": "abcs.local > EVENT > Parenting Class &#8211; Tempe",
                                "http:\/\/abcs.local\/events\/parenting-class-tempe-17\/": "abcs.local > EVENT > Parenting Class &#8211; Tempe",
                                "http:\/\/abcs.local\/events\/parenting-class-tempe-18\/": "abcs.local > EVENT > Parenting Class &#8211; Tempe",
                                "http:\/\/abcs.local\/events\/parenting-class-tempe-19\/": "abcs.local > EVENT > Parenting Class &#8211; Tempe",
                                "http:\/\/abcs.local\/events\/parenting-class-tempe-21\/": "abcs.local > EVENT > Parenting Class &#8211; Tempe",
                                "http:\/\/abcs.local\/events\/parenting-class-tempe-22\/": "abcs.local > EVENT > Parenting Class &#8211; Tempe",
                                "http:\/\/abcs.local\/events\/parenting-class-tempe-3\/": "abcs.local > EVENT > Parenting Class &#8211; Tempe",
                                "http:\/\/abcs.local\/events\/parenting-class-tempe-4\/": "abcs.local > EVENT > Parenting Class &#8211; Tempe",
                                "http:\/\/abcs.local\/events\/parenting-class-tempe-5\/": "abcs.local > EVENT > Parenting Class &#8211; Tempe",
                                "http:\/\/abcs.local\/events\/parenting-class-avondale\/": "abcs.local > EVENT > Parenting Class (Avondale)",
                                "http:\/\/abcs.local\/events\/parenting-class-south-phoenix\/": "abcs.local > EVENT > Parenting Class (South Phoenix)",
                                "http:\/\/abcs.local\/events\/parenting-class-tempe\/": "abcs.local > EVENT > Parenting Class (Tempe)",
                                "http:\/\/abcs.local\/events\/parenting-class-tempe-2\/": "abcs.local > EVENT > Parenting Class (Tempe)",
                                "http:\/\/abcs.local\/events\/parenting-class-tucson\/": "abcs.local > EVENT > Parenting Class (Tucson)",
                                "http:\/\/abcs.local\/events\/parenting-class\/": "abcs.local > EVENT > Parenting Class (Tucson)",
                                "http:\/\/abcs.local\/events\/parenting-class-yuma-spanish\/": "abcs.local > EVENT > Parenting Class (Yuma-Spanish)",
                                "http:\/\/abcs.local\/events\/parenting-class-yuma\/": "abcs.local > EVENT > Parenting Class (Yuma)",
                                "http:\/\/abcs.local\/events\/phoenix-bible-studies\/": "abcs.local > EVENT > Phoenix &#8211; Bible Studies",
                                "http:\/\/abcs.local\/events\/phoenix-parenting-classes\/": "abcs.local > EVENT > Phoenix &#8211; Online Parenting Classes",
                                "http:\/\/abcs.local\/events\/phoenix-parenting-classes-2\/": "abcs.local > EVENT > Phoenix &#8211; Parenting Classes",
                                "http:\/\/abcs.local\/events\/phoenix-toddlers-classes\/": "abcs.local > EVENT > Phoenix &#8211; Toddler&#8217;s Classes",
                                "http:\/\/abcs.local\/events\/potty-training-tempe-parenting-class\/": "abcs.local > EVENT > Potty Training &#8211; Tempe Parenting Class",
                                "http:\/\/abcs.local\/events\/prenatal-class\/": "abcs.local > EVENT > Prenatal Class",
                                "http:\/\/abcs.local\/events\/presentation-division-of-child-support-services\/": "abcs.local > EVENT > Presentation: Division of Child Support Services",
                                "http:\/\/abcs.local\/events\/safe-pregnancy\/": "abcs.local > EVENT > Safe Pregnancy",
                                "http:\/\/abcs.local\/events\/sanctity-of-human-life\/": "abcs.local > EVENT > Sanctity of Human Life",
                                "http:\/\/abcs.local\/events\/siblings-helping-your-children-with-sibling-conflicts-parenting-class\/": "abcs.local > EVENT > Siblings: Helping Your Children with Sibling Conflicts (Parenting Class)",
                                "http:\/\/abcs.local\/events\/sohl-prayer-rally\/": "abcs.local > EVENT > SOHL Prayer Rally",
                                "http:\/\/abcs.local\/events\/south-phoenix-parenting-classes\/": "abcs.local > EVENT > South Phoenix &#8211; Parenting Classes",
                                "http:\/\/abcs.local\/events\/south-phoenix-center-closed\/": "abcs.local > EVENT > South Phoenix Center Closed",
                                "http:\/\/abcs.local\/events\/south-phoenix-center-closed-2\/": "abcs.local > EVENT > South Phoenix Center Closed",
                                "http:\/\/abcs.local\/events\/south-phoenix-center-closed-3\/": "abcs.local > EVENT > South Phoenix Center Closed",
                                "http:\/\/abcs.local\/events\/story-time-and-more\/": "abcs.local > EVENT > Story Time and More!",
                                "http:\/\/abcs.local\/events\/successful-family-living\/": "abcs.local > EVENT > Successful Family Living",
                                "http:\/\/abcs.local\/events\/upside-down-love-bible-study\/": "abcs.local > EVENT > Tempe &#8211; Bible Study",
                                "http:\/\/abcs.local\/events\/tempe-parenting-classes\/": "abcs.local > EVENT > Tempe &#8211; Parenting Classes",
                                "http:\/\/abcs.local\/events\/test-event-2\/": "abcs.local > EVENT > Test Event",
                                "http:\/\/abcs.local\/events\/toilet-training\/": "abcs.local > EVENT > Toilet Training",
                                "http:\/\/abcs.local\/events\/tools-for-school\/": "abcs.local > EVENT > Tools for School",
                                "http:\/\/abcs.local\/events\/mesa-life-skills-classes-3\/": "abcs.local > EVENT > Tucson &#8211; Parenting Classes",
                                "http:\/\/abcs.local\/events\/1215-2\/": "abcs.local > EVENT > Tucson Parenting Classes",
                                "http:\/\/abcs.local\/events\/tummy-problems-in-infants-and-toddlers-tempe-parenting-class\/": "abcs.local > EVENT > Tummy Problems in Infants and Toddlers &#8211; Tempe Parenting Class",
                                "http:\/\/abcs.local\/events\/ultrasounds-during-pregnancy-tempe\/": "abcs.local > EVENT > Ultrasounds During Pregnancy (Tempe)",
                                "http:\/\/abcs.local\/events\/we-are-messengers-concert\/": "abcs.local > EVENT > We Are Messengers Concert",
                                "http:\/\/abcs.local\/events\/what-is-family\/": "abcs.local > EVENT > What is Family?",
                                "http:\/\/abcs.local\/events\/yuma-clases-para-padres\/": "abcs.local > EVENT > Yuma &#8211; Clases para padres",
                                "http:\/\/abcs.local\/events\/yuma-clases-para-padres-2\/": "abcs.local > EVENT > Yuma &#8211; Parenting Classes",
                                "http:\/\/abcs.local\/events\/yuma-clases-para-padres-2-2-2\/": "abcs.local > EVENT > Yuma &#8211; Prenatal Classes",
                                "http:\/\/abcs.local\/events\/yuma-clases-para-padres-2-2\/": "abcs.local > EVENT > Yuma &#8211; Sewing Classes*",
                                "http:\/\/abcs.local\/locations\/bhhs-legacy-foundation-resource-center-phoenix\/": "abcs.local > LOCATION > BHHS Legacy Foundation Resource Center &#8211; Phoenix",
                                "http:\/\/abcs.local\/locations\/caring-ministries\/": "abcs.local > LOCATION > Caring Ministries",
                                "http:\/\/abcs.local\/locations\/casa-de-amor\/": "abcs.local > LOCATION > Casa de Amor",
                                "http:\/\/abcs.local\/locations\/foster-care-coconino-county\/": "abcs.local > LOCATION > Foster Care &#8211; Coconino County",
                                "http:\/\/abcs.local\/locations\/foster-care-maricopa-county-east-valley\/": "abcs.local > LOCATION > Foster Care &#8211; Maricopa County (East Valley)",
                                "http:\/\/abcs.local\/locations\/foster-care-maricopa-county-phoenix\/": "abcs.local > LOCATION > Foster Care &#8211; Maricopa County (Phoenix)",
                                "http:\/\/abcs.local\/locations\/foster-care-mohave-county\/": "abcs.local > LOCATION > Foster Care &#8211; Mohave County",
                                "http:\/\/abcs.local\/locations\/foster-care-pima-county\/": "abcs.local > LOCATION > Foster Care &#8211; Pima County",
                                "http:\/\/abcs.local\/locations\/foster-care-pinal-county\/": "abcs.local > LOCATION > Foster Care &#8211; Pinal County",
                                "http:\/\/abcs.local\/locations\/foster-care-yavapai-county\/": "abcs.local > LOCATION > Foster Care &#8211; Yavapai County",
                                "http:\/\/abcs.local\/locations\/foster-care-yuma-county\/": "abcs.local > LOCATION > Foster Care &#8211; Yuma County",
                                "http:\/\/abcs.local\/locations\/main-office\/": "abcs.local > LOCATION > Main Office",
                                "http:\/\/abcs.local\/locations\/new-life-pregnancy-center-avondale\/": "abcs.local > LOCATION > New Life Pregnancy Center &#8211; Avondale",
                                "http:\/\/abcs.local\/locations\/new-life-pregnancy-center-casa-grande\/": "abcs.local > LOCATION > New Life Pregnancy Center &#8211; Casa Grande",
                                "http:\/\/abcs.local\/locations\/new-life-pregnancy-center-ciudad-morelos-mexico\/": "abcs.local > LOCATION > New Life Pregnancy Center &#8211; Ciudad Morelos (Mexico)",
                                "http:\/\/abcs.local\/locations\/new-life-pregnancy-center-mesa\/": "abcs.local > LOCATION > New Life Pregnancy Center &#8211; Mesa",
                                "http:\/\/abcs.local\/locations\/new-life-pregnancy-center-phoenix-central\/": "abcs.local > LOCATION > New Life Pregnancy Center &#8211; Phoenix (Central)",
                                "http:\/\/abcs.local\/locations\/new-life-pregnancy-center-phoenix-metro\/": "abcs.local > LOCATION > New Life Pregnancy Center &#8211; Phoenix (Metro)",
                                "http:\/\/abcs.local\/locations\/new-life-pregnancy-center-phoenix-south\/": "abcs.local > LOCATION > New Life Pregnancy Center &#8211; Phoenix (South)",
                                "http:\/\/abcs.local\/locations\/new-life-pregnancy-center-snowflake\/": "abcs.local > LOCATION > New Life Pregnancy Center &#8211; Snowflake",
                                "http:\/\/abcs.local\/locations\/new-life-pregnancy-center-tempe\/": "abcs.local > LOCATION > New Life Pregnancy Center &#8211; Tempe",
                                "http:\/\/abcs.local\/locations\/new-life-pregnancy-center-tucson\/": "abcs.local > LOCATION > New Life Pregnancy Center &#8211; Tucson",
                                "http:\/\/abcs.local\/locations\/new-life-pregnancy-center-wickenburg\/": "abcs.local > LOCATION > New Life Pregnancy Center &#8211; Wickenburg",
                                "http:\/\/abcs.local\/locations\/new-life-pregnancy-center-winslow\/": "abcs.local > LOCATION > New Life Pregnancy Center &#8211; Winslow",
                                "http:\/\/abcs.local\/locations\/new-life-pregnancy-center-yuma\/": "abcs.local > LOCATION > New Life Pregnancy Center &#8211; Yuma",
                                "http:\/\/abcs.local\/locations\/parent-aide-apache-navajo-counties\/": "abcs.local > LOCATION > Parent Aide &#8211; Apache Navajo Counties",
                                "http:\/\/abcs.local\/locations\/parent-aide-maricopa-county\/": "abcs.local > LOCATION > Parent Aide &#8211; Maricopa County",
                                "http:\/\/abcs.local\/locations\/parent-aide-pima-county\/": "abcs.local > LOCATION > Parent Aide &#8211; Pima County",
                                "http:\/\/abcs.local\/locations\/parent-aide-pima-county-tucson-chinese-baptist-church\/": "abcs.local > LOCATION > Parent Aide &#8211; Pima County (Tucson Chinese Baptist Church)",
                                "http:\/\/abcs.local\/locations\/parent-aide-yavapai-county\/": "abcs.local > LOCATION > Parent Aide &#8211; Yavapai County",
                                "http:\/\/abcs.local\/locations\/parent-aide-yuma-county\/": "abcs.local > LOCATION > Parent Aide &#8211; Yuma County",
                                "http:\/\/abcs.local\/locations\/phoenix-office\/": "abcs.local > LOCATION > Phoenix Office",
                                "http:\/\/abcs.local\/locations\/resource-center-tucson-chinese-baptist-church\/": "abcs.local > LOCATION > Resource Center &#8211; Tucson Chinese Baptist Church",
                                "http:\/\/abcs.local\/locations\/resource-center-yuma\/": "abcs.local > LOCATION > Resource Center, Yuma",
                                "http:\/\/abcs.local\/locations\/rio-vista-center\/": "abcs.local > LOCATION > Rio Vista Center",
                                "http:\/\/abcs.local\/locations\/snowflake-office\/": "abcs.local > LOCATION > Snowflake Office",
                                "http:\/\/abcs.local\/locations\/yuma-office\/": "abcs.local > LOCATION > Yuma Office",
                                "http:\/\/abcs.local\/abcs-weekly-devotional-entrusted-with-much\/": "abcs.local > POST > ABCS Weekly Devotional &#8211; Entrusted with Much",
                                "http:\/\/abcs.local\/abcs-weekly-devotional-a-calling-to-something-larger-than-ourselves\/": "abcs.local > POST > ABCS Weekly Devotional: A Calling to Something Larger than Ourselves",
                                "http:\/\/abcs.local\/abcs-weekly-devotional-a-faithful-god\/": "abcs.local > POST > ABCS Weekly Devotional: A Faithful God",
                                "http:\/\/abcs.local\/abcs-weekly-devotional-a-loose-grip\/": "abcs.local > POST > ABCS Weekly Devotional: A Loose Grip",
                                "http:\/\/abcs.local\/abcs-weekly-devotional-a-mothers-heart\/": "abcs.local > POST > ABCS Weekly Devotional: A Mother&#8217;s Heart",
                                "http:\/\/abcs.local\/abcs-weekly-devotional-2\/": "abcs.local > POST > ABCS Weekly Devotional: Adopted Into God&#8217;s Family",
                                "http:\/\/abcs.local\/abcs-weekly-devotional-all-i-have-needed-your-hands-have-provided\/": "abcs.local > POST > ABCS Weekly Devotional: All I Have Needed, Your Hands Have Provided",
                                "http:\/\/abcs.local\/abcs-weekly-devotional-be-a-good-steward-with-what-we-have-been-given\/": "abcs.local > POST > ABCS Weekly Devotional: Be A Good Steward With What We Have Been Given",
                                "http:\/\/abcs.local\/abcs-weekly-devotional-brought-to-completion\/": "abcs.local > POST > ABCS Weekly Devotional: Brought to Completion",
                                "http:\/\/abcs.local\/abcs-weekly-devotional-build-relationships-through-trust-and-respect\/": "abcs.local > POST > ABCS Weekly Devotional: Build Relationships Through Trust and Respect",
                                "http:\/\/abcs.local\/abcs-weekly-devotional-building-people-up\/": "abcs.local > POST > ABCS Weekly Devotional: Building People Up",
                                "http:\/\/abcs.local\/abcs-weekly-devotional-building-relationships-through-trust-and-respect\/": "abcs.local > POST > ABCS Weekly Devotional: Building Relationships Through Trust and Respect",
                                "http:\/\/abcs.local\/abcs-weekly-devotional-carry-each-others-burdens\/": "abcs.local > POST > ABCS Weekly Devotional: Carry Each Others Burdens",
                                "http:\/\/abcs.local\/abcs-weekly-devotional-christ-as-our-core\/": "abcs.local > POST > ABCS Weekly Devotional: Christ as Our Core",
                                "http:\/\/abcs.local\/abcs-weekly-devotional-do-everything-with-excellence\/": "abcs.local > POST > ABCS Weekly Devotional: Do Everything With Excellence",
                                "http:\/\/abcs.local\/abcs-weekly-devotional-dont-conform-to-the-world\/": "abcs.local > POST > ABCS Weekly Devotional: Don&#8217;t Conform to the World",
                                "http:\/\/abcs.local\/abcs-weekly-devotional-facing-our-daily-giants\/": "abcs.local > POST > ABCS Weekly Devotional: Facing Our Daily Giants",
                                "http:\/\/abcs.local\/abcs-weekly-devotional-facing-our-daily-giants-2\/": "abcs.local > POST > ABCS Weekly Devotional: Facing Our Daily Giants",
                                "http:\/\/abcs.local\/abcs-weekly-devotional-full-of-heart\/": "abcs.local > POST > ABCS Weekly Devotional: Full of Heart",
                                "http:\/\/abcs.local\/abcs-weekly-devotional-gift-training\/": "abcs.local > POST > ABCS Weekly Devotional: Gift Training",
                                "http:\/\/abcs.local\/abcs-weekly-devotional-god-has-grace-and-mercy-for-us-all\/": "abcs.local > POST > ABCS Weekly Devotional: God Has Grace and Mercy for Us All",
                                "http:\/\/abcs.local\/abcs-weekly-devotional-god-never-wastes-past-experiences\/": "abcs.local > POST > ABCS Weekly Devotional: God Never Wastes Past Experiences",
                                "http:\/\/abcs.local\/abcs-weekly-devotional-good-soil\/": "abcs.local > POST > ABCS Weekly Devotional: Good Soil",
                                "http:\/\/abcs.local\/abcs-weekly-devotional\/": "abcs.local > POST > ABCS Weekly Devotional: He Will Never Leave Nor Forsake You",
                                "http:\/\/abcs.local\/abcs-weekly-devotional-honor-god-in-all-we-do\/": "abcs.local > POST > ABCS Weekly Devotional: Honor God in All We Do",
                                "http:\/\/abcs.local\/abcs-weekly-devotional-hope-and-care\/": "abcs.local > POST > ABCS Weekly Devotional: Hope and Care",
                                "http:\/\/abcs.local\/abcs-weekly-devotional-how-he-loves-us-so\/": "abcs.local > POST > ABCS Weekly Devotional: How He Loves Us So",
                                "http:\/\/abcs.local\/abcs-weekly-devotional-knowing-god\/": "abcs.local > POST > ABCS Weekly Devotional: Knowing God",
                                "http:\/\/abcs.local\/abcs-weekly-devotional-leaving-footprints\/": "abcs.local > POST > ABCS Weekly Devotional: Leaving Footprints",
                                "http:\/\/abcs.local\/abcs-weekly-devotional-less-of-me-more-of-god\/": "abcs.local > POST > ABCS Weekly Devotional: Less of Me, More of God",
                                "http:\/\/abcs.local\/abcs-weekly-devotional-let-the-little-children-come-to-christ\/": "abcs.local > POST > ABCS Weekly Devotional: Let the Little Children Come to Christ",
                                "http:\/\/abcs.local\/abcs-weekly-devotional-living-our-lives-for-a-why\/": "abcs.local > POST > ABCS Weekly Devotional: Living Our Lives for a Why",
                                "http:\/\/abcs.local\/abcs-weekly-devotional-look-for-him\/": "abcs.local > POST > ABCS Weekly Devotional: Look For Him",
                                "http:\/\/abcs.local\/abcs-weekly-devotion-of-a-bold-faith\/": "abcs.local > POST > ABCS Weekly Devotional: Of A Bold Faith",
                                "http:\/\/abcs.local\/abcs-weekly-devotional-on-the-receiving-end\/": "abcs.local > POST > ABCS Weekly Devotional: On the Receiving End",
                                "http:\/\/abcs.local\/abcs-weekly-devotional-reaping-a-harvest\/": "abcs.local > POST > ABCS Weekly Devotional: Reaping a Harvest",
                                "http:\/\/abcs.local\/abcs-weekly-devotional-right-love-of-god\/": "abcs.local > POST > ABCS Weekly Devotional: Right Love of God",
                                "http:\/\/abcs.local\/abcs-weekly-devotional-serve-one-another-in-love\/": "abcs.local > POST > ABCS Weekly Devotional: Serve One Another In Love",
                                "http:\/\/abcs.local\/abcs-weekly-devotional-serving-the-least-of-these\/": "abcs.local > POST > ABCS Weekly Devotional: Serving the Least of These",
                                "http:\/\/abcs.local\/abcs-weekly-devotional-sharing-hope\/": "abcs.local > POST > ABCS Weekly Devotional: Sharing Hope",
                                "http:\/\/abcs.local\/abcs-weekly-devotion-stay-rooted\/": "abcs.local > POST > ABCS Weekly Devotional: Stay Rooted",
                                "http:\/\/abcs.local\/abcs-weekly-devotional-strength-in-grace\/": "abcs.local > POST > ABCS Weekly Devotional: Strength in Grace",
                                "http:\/\/abcs.local\/abcs-weekly-devotional-submitting-our-prayers-to-god\/": "abcs.local > POST > ABCS Weekly Devotional: Submitting Our Prayers to God",
                                "http:\/\/abcs.local\/abcs-weekly-devotional-support-and-encouragement\/": "abcs.local > POST > ABCS Weekly Devotional: Support and Encouragement",
                                "http:\/\/abcs.local\/abcs-weekly-devotional-teaching-children-about-jesus\/": "abcs.local > POST > ABCS Weekly Devotional: Teaching Children About Jesus",
                                "http:\/\/abcs.local\/abcs-weekly-devotional-the-best-in-you\/": "abcs.local > POST > ABCS Weekly Devotional: The Best in You",
                                "http:\/\/abcs.local\/abcs-weekly-devotional-there-are-no-small-roles\/": "abcs.local > POST > ABCS Weekly Devotional: There are No Small Roles",
                                "http:\/\/abcs.local\/abcs-weekly-devotional-true-religion\/": "abcs.local > POST > ABCS Weekly Devotional: True Religion",
                                "http:\/\/abcs.local\/abcs-weekly-devotional-we-are-gods-hands-and-feet\/": "abcs.local > POST > ABCS Weekly Devotional: We are God&#8217;s Hands and Feet",
                                "http:\/\/abcs.local\/abcs-weekly-devotional-you-never-know\/": "abcs.local > POST > ABCS Weekly Devotional: You Never Know",
                                "http:\/\/abcs.local\/hello-world\/": "abcs.local > POST > Hello world!",
                                "http:\/\/abcs.local\/impact-story-an-adoptive-family-searching-for-support\/": "abcs.local > POST > Impact Story: An Adoptive Family Searching for Support",
                                "http:\/\/abcs.local\/impact-story-foster-care-is-having-a-good-day\/": "abcs.local > POST > Impact Story: Foster Care is Having a Good Day",
                                "http:\/\/abcs.local\/impact-story-hope-and-care\/": "abcs.local > POST > Impact Story: Hope and Care",
                                "http:\/\/abcs.local\/impact-story-pray-the-pray\/": "abcs.local > POST > Impact Story: Pray the Pray",
                                "http:\/\/abcs.local\/impact-story-transitional-housing\/": "abcs.local > POST > Impact Story: Transitional Housing",
                                "http:\/\/abcs.local\/impact-story-ultrasound-van\/": "abcs.local > POST > Impact Story: Ultrasound Van",
                                "http:\/\/abcs.local\/new-life-transitional-program-morgans-story\/": "abcs.local > POST > New Life Transitional Program: Morgan&#8217;s Story",
                                "http:\/\/abcs.local\/staff-spotlight-meet-hillary-horn\/": "abcs.local > POST > Staff Spotlight: Meet Hillary Horn",
                                "http:\/\/abcs.local\/staff-spotlight-meet-lauren-belcher\/": "abcs.local > POST > Staff Spotlight: Meet Lauren Belcher",
                                "http:\/\/abcs.local\/volunteer-spotlight-meet-kay\/": "abcs.local > POST > Volunteer Spotlight: Meet Kay",
                                "http:\/\/newlife.abcs.local\/": "newlife.abcs.local > PAGE > Donate",
                                "http:\/\/newlife.abcs.local\/donation-confirmation\/": "newlife.abcs.local > PAGE > Donation Confirmation",
                                "http:\/\/newlife.abcs.local\/donation-failed\/": "newlife.abcs.local > PAGE > Donation Failed",
                                "http:\/\/newlife.abcs.local\/donation-history\/": "newlife.abcs.local > PAGE > Donation History",
                                "http:\/\/newlife.abcs.local\/locations\/": "newlife.abcs.local > PAGE > Locations",
                                "http:\/\/newlife.abcs.local\/sample-page\/": "newlife.abcs.local > PAGE > Sample Page",
                                "http:\/\/newlife.abcs.local\/services\/alligator-research\/": "newlife.abcs.local > SERVICE > Alligator research",
                                "http:\/\/newlife.abcs.local\/locations\/big-office\/": "newlife.abcs.local > LOCATION > Big Office TOO",
                                "http:\/\/newlife.abcs.local\/2018\/12\/04\/hello-world\/": "newlife.abcs.local > POST > Hello world!"
                            },
                            "default_value": [],
                            "allow_null": 0,
                            "multiple": 0,
                            "ui": 0,
                            "return_format": "value",
                            "ajax": 0,
                            "placeholder": ""
                        }
                    ],
                    "min": "",
                    "max": ""
                }
            },
            "button_label": "Add Row",
            "min": "",
            "max": ""
        }
    ],
    "location": [
        [
            {
                "param": "post_type",
                "operator": "==",
                "value": "post"
            }
        ]
    ],
    "menu_order": 0,
    "position": "normal",
    "style": "default",
    "label_placement": "top",
    "instruction_placement": "label",
    "hide_on_screen": "",
    "active": 1,
    "description": "",
    "modified": 1655489825
}